IC design course/lab/question/HW2/rails_state_machine.vcd
$date
	Fri Mar 24 16:35:23 2023
$end
$version
	Icarus Verilog
$end
$timescale
	10ps
$end
$scope module testfixture $end
$scope module u_rails $end
$var wire 1 ! clk $end
$var wire 4 " data [3:0] $end
$var wire 1 # reset $end
$var parameter 2 $ FETCH $end
$var parameter 2 % FETCH_FIRST $end
$var parameter 2 & FINISH $end
$var parameter 2 ' IDLE $end
$var reg 10 ( B_order [9:0] $end
$var reg 1 ) result $end
$var reg 1 * result_w $end
$var reg 2 + state_next [1:0] $end
$var reg 2 , state_reg [1:0] $end
$var reg 10 - station_order [9:0] $end
$var reg 10 . temp [9:0] $end
$var reg 1 / valid $end
$var reg 1 0 valid_w $end
$upscope $end
$upscope $end
$enddefinitions $end
$comment Show the parameter values. $end
$dumpall
b0 '
b11 &
b1 %
b10 $
$end
#0
$dumpvars
x0
x/
bx .
bx -
bx ,
bx +
x*
x)
bx (
0#
bx "
0!
$end
#2500
1!
#2700
b0 (
b0 -
00
1*
b0 +
b0 ,
1#
#5000
0!
#7500
1)
0/
1!
#10000
0!
#12500
1!
#15000
0!
#17500
1!
#17700
0#
#20000
b1 +
b110 "
0!
#22500
b10 +
b1 ,
1!
#25000
b10 "
0!
#27500
b10 (
b1 -
b1 .
b10 ,
1!
#30000
b1010 (
b101 -
b111 .
b100 "
0!
#32500
1!
#35000
b1011 (
0*
b0 .
b1 "
0!
#37500
0)
1!
#40000
b1111 (
b1 -
b11 .
b11 "
0!
#42500
1!
#45000
b101111 (
b10000 -
b11111 .
b110 "
0!
#47500
1!
#50000
b111111 (
b0 -
b1111 .
b101 "
0!
#52500
1!
#55000
b1111000000 -
b1111111111 .
b11 +
bx "
0!
#57500
b0 +
10
b11 ,
1!
#60000
0!
#62500
b0 (
b0 -
00
1*
b0 ,
1/
1!
#65000
0!
#67500
1)
0/
1!
#70000
b1 +
b111 "
0!
#72500
b10 +
b1 ,
1!
#75000
b101 "
0!
#77500
b10000 (
b1111 -
b1111 .
b10 ,
1!
#80000
b11000 (
b111 -
b111 .
b100 "
0!
#82500
1!
#85000
b111000 (
b11111 .
b110 "
0!
#87500
1!
#90000
b111100 (
b11 -
b11 .
b11 "
0!
#92500
1!
#95000
b111101 (
0*
b0 .
b1 "
0!
#97500
0)
1!
#100000
b111111 (
b1 -
b1 .
b10 "
0!
#102500
1!
#105000
b1111111 (
b0 -
b111111 .
b111 "
0!
#107500
1!
#110000
b11 +
b1110000000 -
b1111111111 .
bx "
0!
#112500
10
b0 +
b11 ,
1!
#115000
0!
#117500
b0 (
b0 -
00
1*
b0 ,
1/
1!
#120000
0!
#122500
1)
0/
1!
#125000
b1 +
b110 "
0!
#127500
b10 +
b1 ,
1!
#130000
b100 "
0!
#132500
b1000 (
b111 -
b111 .
b10 ,
1!
#135000
b1010 (
0*
b1 .
b10 "
0!
#137500
0)
1!
#140000
b1011 (
b0 .
b1 "
0!
#142500
1!
#145000
b101011 (
b10100 -
b11111 .
b110 "
0!
#147500
1!
#150000
b111011 (
b100 -
b1111 .
b101 "
0!
#152500
1!
#155000
b111111 (
b0 -
b11 .
b11 "
0!
#157500
1!
#160000
b11 +
b1111000000 -
b1111111111 .
bx "
0!
#162500
10
b0 +
b11 ,
1!
#165000
0!
#167500
b0 (
b0 -
00
1*
b0 ,
1/
1!
#170000
0!
#172500
1)
0/
1!
#175000
b1 +
b101 "
0!
#177500
b10 +
b1 ,
1!
#180000
b100 "
0!
#182500
b1000 (
b111 -
b111 .
b10 ,
1!
#185000
b1100 (
b11 -
b11 .
b11 "
0!
#187500
1!
#190000
b1110 (
b1 -
b1 .
b10 "
0!
#192500
1!
#195000
b11110 (
b1111 .
b101 "
0!
#197500
1!
#200000
b11111 (
b0 -
b0 .
b1 "
0!
#202500
1!
#205000
b1111100000 -
b1111111111 .
b11 +
bx "
0!
#207500
b0 +
10
b11 ,
1!
#210000
0!
#212500
b0 (
b0 -
00
b0 ,
1/
1!
#215000
0!
#217500
0/
1!
#220000
b1 +
b1000 "
0!
#222500
b10 +
b1 ,
1!
#225000
b11 "
0!
#227500
b100 (
b11 -
b11 .
b10 ,
1!
#230000
b110 (
b1 -
b1 .
b10 "
0!
#232500
1!
#235000
b111 (
b0 -
b0 .
b1 "
0!
#237500
1!
#240000
b10000111 (
b1111000 -
b1111111 .
b1000 "
0!
#242500
1!
#245000
b10010111 (
0*
b1111 .
b101 "
0!
#247500
0)
1!
#250000
b11010111 (
b111000 -
b111111 .
b111 "
0!
#252500
1!
#255000
b11110111 (
b11000 -
b11111 .
b110 "
0!
#257500
1!
#260000
b11111111 (
b111 .
b100 "
0!
#262500
1!
#265000
b1100000000 -
b1111111111 .
b11 +
bx "
0!
#267500
b0 +
10
b11 ,
1!
#270000
0!
#272500
b0 (
b0 -
00
1*
b0 ,
1/
1!
#275000
0!
#277500
1)
0/
1!
#280000
b1 +
b100 "
0!
#282500
b10 +
b1 ,
1!
#285000
b1 "
0!
#287500
b1 (
b0 .
b10 ,
1!
#290000
b101 (
b10 -
b11 .
b11 "
0!
#292500
1!
#295000
b111 (
b0 -
b1 .
b10 "
0!
#297500
1!
#300000
b1111 (
b111 .
b100 "
0!
#302500
1!
#305000
b1111110000 -
b1111111111 .
b11 +
bx "
0!
#307500
b0 +
10
b11 ,
1!
#310000
0!
#312500
b0 (
b0 -
00
b0 ,
1/
1!
#315000
0!
#317500
0/
1!
#320000
b1 +
b1001 "
0!
#322500
b10 +
b1 ,
1!
#325000
b111 "
0!
#327500
b1000000 (
b111111 -
b111111 .
b10 ,
1!
#330000
b1001000 (
0*
b111 .
b100 "
0!
#332500
0)
1!
#335000
b1101000 (
b11111 -
b11111 .
b110 "
0!
#337500
1!
#340000
b1101100 (
b11 .
b11 "
0!
#342500
1!
#345000
b11101100 (
b10011 -
b1111111 .
b1000 "
0!
#347500
1!
#350000
b11111100 (
b11 -
b1111 .
b101 "
0!
#352500
1!
#355000
b111111100 (
b11111111 .
b1001 "
0!
#357500
1!
#360000
b111111110 (
b1 -
b1 .
b10 "
0!
#362500
1!
#365000
b111111111 (
b0 -
b0 .
b1 "
0!
#367500
1!
#370000
b11 +
b1000000000 -
b1111111111 .
bx "
0!
#372500
10
b0 +
b11 ,
1!
#375000
0!
#377500
b0 (
b0 -
00
1*
b0 ,
1/
1!
#380000
0!
#382500
1)
0/
1!
#385000
b1 +
b1000 "
0!
#387500
b10 +
b1 ,
1!
#390000
b100 "
0!
#392500
b1000 (
b111 -
b111 .
b10 ,
1!
#395000
b10001000 (
b1110111 -
b1111111 .
b1000 "
0!
#397500
1!
#400000
b10101000 (
0*
b11111 .
b110 "
0!
#402500
0)
1!
#405000
b10101100 (
b11 .
b11 "
0!
#407500
1!
#410000
b10101110 (
b1 .
b10 "
0!
#412500
1!
#415000
b10111110 (
b1111 .
b101 "
0!
#417500
1!
#420000
b11111110 (
b110111 -
b111111 .
b111 "
0!
#422500
1!
#425000
b11111111 (
b0 .
b1 "
0!
#427500
1!
#430000
b11 +
b1100000000 -
b1111111111 .
bx "
0!
#432500
10
b0 +
b11 ,
1!
#435000
0!
#437500
b0 (
b0 -
00
1*
b0 ,
1/
1!
#440000
0!
#442500
1)
0/
1!
#445000
b1 +
b11 "
0!
#447500
b10 +
b1 ,
1!
#450000
b1 "
0!
#452500
b1 (
b0 .
b10 ,
1!
#455000
b11 (
b1 .
b10 "
0!
#457500
1!
#460000
b111 (
b11 .
b11 "
0!
#462500
1!
#465000
b1111111000 -
b1111111111 .
b11 +
bx "
0!
#467500
b0 +
10
b11 ,
1!
#470000
0!
#472500
b0 (
b0 -
00
b0 ,
1/
1!
#475000
0!
#477500
0/
1!
#480000
b1 +
b100 "
0!
#482500
b10 +
b1 ,
1!
#485000
b10 "
0!
#487500
b10 (
b1 -
b1 .
b10 ,
1!
#490000
b11 (
b0 -
b0 .
b1 "
0!
#492500
1!
#495000
b1011 (
b100 -
b111 .
b100 "
0!
#497500
1!
#500000
b1111 (
b0 -
b11 .
b11 "
0!
#502500
1!
#505000
b1111110000 -
b1111111111 .
b11 +
bx "
0!
#507500
b0 +
10
b11 ,
1!
#510000
0!
#512500
b0 (
b0 -
00
b0 ,
1/
1!
#515000
0!
#517500
0/
1!
#520000
b1 +
b101 "
0!
#522500
b10 +
b1 ,
1!
#525000
b1 "
0!
#527500
b1 (
b0 .
b10 ,
1!
#530000
b1001 (
b110 -
b111 .
b100 "
0!
#532500
1!
#535000
b1101 (
b10 -
b11 .
b11 "
0!
#537500
1!
#540000
b11101 (
b1111 .
b101 "
0!
#542500
1!
#545000
b11111 (
b0 -
b1 .
b10 "
0!
#547500
1!
#550000
b11 +
b1111100000 -
b1111111111 .
bx "
0!
#552500
10
b0 +
b11 ,
1!
#555000
0!
#557500
b0 (
b0 -
00
b0 ,
1/
1!
#560000
0!
#562500
0/
1!
#565000
b1 +
b1010 "
0!
#567500
b10 +
b1 ,
1!
#570000
b1001 "
0!
#572500
b100000000 (
b11111111 -
b11111111 .
b10 ,
1!
#575000
b1100000000 (
b111111111 .
b1010 "
0!
#577500
1!
#580000
b1100000001 (
0*
b0 .
b1 "
0!
#582500
0)
1!
#585000
b1100000011 (
b1 .
b10 "
0!
#587500
1!
#590000
b1101000011 (
b111111 .
b111 "
0!
#592500
1!
#595000
b1111000011 (
b1111111 -
b1111111 .
b1000 "
0!
#597500
1!
#600000
b1111100011 (
b11111 .
b110 "
0!
#602500
1!
#605000
b1111100111 (
b11 .
b11 "
0!
#607500
1!
#610000
b1111101111 (
b111 .
b100 "
0!
#612500
1!
#615000
b1111111111 (
b1111 .
b101 "
0!
#617500
1!
#620000
b11 +
b0 -
b1111111111 .
bx "
0!
#622500
10
b0 +
b11 ,
1!
#625000
0!
#627500
b0 (
00
1*
b0 ,
1/
1!
#630000
0!
#632500
1)
0/
1!
#635000
b1 +
b1010 "
0!
#637500
b10 +
b1 ,
1!
#640000
b10 "
0!
#642500
b10 (
b1 -
b1 .
b10 ,
1!
#645000
b100010 (
b11101 -
b11111 .
b110 "
0!
#647500
1!
#650000
b100011 (
0*
b0 .
b1 "
0!
#652500
0)
1!
#655000
b10100011 (
b1011100 -
b1111111 .
b1000 "
0!
#657500
1!
#660000
b10110011 (
b1111 .
b101 "
0!
#662500
1!
#665000
b10111011 (
b111 .
b100 "
0!
#667500
1!
#670000
b11111011 (
b11100 -
b111111 .
b111 "
0!
#672500
1!
#675000
b1011111011 (
b100000100 -
b111111111 .
b1010 "
0!
#677500
1!
#680000
b1011111111 (
b11 .
b11 "
0!
#682500
1!
#685000
b1111111111 (
b100 -
b11111111 .
b1001 "
0!
#687500
1!
#690000
b11 +
b0 -
b1111111111 .
bx "
0!
#692500
10
b0 +
b11 ,
1!
#695000
0!
#697500
b0 (
00
1*
b0 ,
1/
1!
#700000
0!
#702500
1)
0/
1!
#705000
b1 +
b1010 "
0!
#707500
b10 +
b1 ,
1!
#710000
b100 "
0!
#712500
b1000 (
b111 -
b111 .
b10 ,
1!
#715000
b100001000 (
b11110111 -
b11111111 .
b1001 "
0!
#717500
1!
#720000
b100001010 (
0*
b1 .
b10 "
0!
#722500
0)
1!
#725000
b110001010 (
b1110111 -
b1111111 .
b1000 "
0!
#727500
1!
#730000
b110001011 (
b0 .
b1 "
0!
#732500
1!
#735000
b111001011 (
b110111 -
b111111 .
b111 "
0!
#737500
1!
#740000
b111101011 (
b10111 -
b11111 .
b110 "
0!
#742500
1!
#745000
b1111101011 (
b10100 -
b111111111 .
b1010 "
0!
#747500
1!
#750000
b1111101111 (
b11 .
b11 "
0!
#752500
1!
#755000
b1111111111 (
b100 -
b1111 .
b101 "
0!
#757500
1!
#760000
b11 +
b0 -
b1111111111 .
bx "
0!
#762500
10
b0 +
b11 ,
1!
#765000
0!
#767500
b0 (
00
1*
b0 ,
1/
1!
#770000
0!
#772500
1)
0/
1!
#775000
b1 +
b110 "
0!
#777500
b10 +
b1 ,
1!
#780000
b100 "
0!
#782500
b1000 (
b111 -
b111 .
b10 ,
1!
#785000
b11000 (
b1111 .
b101 "
0!
#787500
1!
#790000
b11001 (
0*
b0 .
b1 "
0!
#792500
0)
1!
#795000
b11101 (
b11 -
b11 .
b11 "
0!
#797500
1!
#800000
b11111 (
b1 -
b1 .
b10 "
0!
#802500
1!
#805000
b111111 (
b0 -
b11111 .
b110 "
0!
#807500
1!
#810000
b11 +
b1111000000 -
b1111111111 .
bx "
0!
#812500
10
b0 +
b11 ,
1!
#815000
0!
#817500
b0 (
b0 -
00
1*
b0 ,
1/
1!
#820000
0!
#822500
1)
0/
1!
#825000
b1 +
b1010 "
0!
#827500
b10 +
b1 ,
1!
#830000
b100 "
0!
#832500
b1000 (
b111 -
b111 .
b10 ,
1!
#835000
b1001000 (
b110111 -
b111111 .
b111 "
0!
#837500
1!
#840000
b1001001000 (
b110110111 -
b111111111 .
b1010 "
0!
#842500
1!
#845000
b1001001010 (
0*
b1 .
b10 "
0!
#847500
0)
1!
#850000
b1101001010 (
b10110111 -
b11111111 .
b1001 "
0!
#852500
1!
#855000
b1101001011 (
b0 .
b1 "
0!
#857500
1!
#860000
b1101011011 (
b1111 .
b101 "
0!
#862500
1!
#865000
b1101111011 (
b11111 .
b110 "
0!
#867500
1!
#870000
b1101111111 (
b11 .
b11 "
0!
#872500
1!
#875000
b1111111111 (
b110111 -
b1111111 .
b1000 "
0!
#877500
1!
#880000
b11 +
b0 -
b1111111111 .
bx "
0!
#882500
10
b0 +
b11 ,
1!
#885000
0!
#887500
b0 (
00
1*
b0 ,
1/
1!
#890000
0!
#892500
1)
0/
1!
#895000
b1 +
b11 "
0!
#897500
b10 +
b1 ,
1!
#900000
b10 "
0!
#902500
b10 (
b1 -
b1 .
b10 ,
1!
#905000
b110 (
b11 .
b11 "
0!
#907500
1!
#910000
b111 (
b0 -
b0 .
b1 "
0!
#912500
1!
#915000
b1111111000 -
b1111111111 .
b11 +
bx "
0!
#917500
b0 +
10
b11 ,
1!
#920000
0!
#922500
b0 (
b0 -
00
b0 ,
1/
1!
#925000
0!
#927500
0/
1!
#930000
b1 +
b100 "
0!
#932500
b10 +
b1 ,
1!
#935000
b10 "
0!
#937500
b10 (
b1 -
b1 .
b10 ,
1!
#940000
b1010 (
b101 -
b111 .
b100 "
0!
#942500
1!
#945000
b1110 (
b1 -
b11 .
b11 "
0!
#947500
1!
#950000
b1111 (
b0 -
b0 .
b1 "
0!
#952500
1!
#955000
b1111110000 -
b1111111111 .
b11 +
bx "
0!
#957500
b0 +
10
b11 ,
1!
#960000
0!
#962500
b0 (
b0 -
00
b0 ,
1/
1!
#965000
0!
#967500
0/
1!
#970000
b1 +
b1010 "
0!
#972500
b10 +
b1 ,
1!
#975000
b111 "
0!
#977500
b1000000 (
b111111 -
b111111 .
b10 ,
1!
#980000
b1001000000 (
b110111111 -
b111111111 .
b1010 "
0!
#982500
1!
#985000
b1101000000 (
b10111111 -
b11111111 .
b1001 "
0!
#987500
1!
#990000
b1101001000 (
0*
b111 .
b100 "
0!
#992500
0)
1!
#995000
b1101101000 (
b11111 .
b110 "
0!
#997500
1!
#1000000
b1101101001 (
b0 .
b1 "
0!
#1002500
1!
#1005000
b1101101101 (
b11 .
b11 "
0!
#1007500
1!
#1010000
b1101111101 (
b1111 .
b101 "
0!
#1012500
1!
#1015000
b1101111111 (
b1 .
b10 "
0!
#1017500
1!
#1020000
b1111111111 (
b111111 -
b1111111 .
b1000 "
0!
#1022500
1!
#1025000
b0 -
b1111111111 .
b11 +
bx "
0!
#1027500
b0 +
10
b11 ,
1!
#1030000
0!
#1032500
b0 (
00
1*
b0 ,
1/
1!
#1035000
0!
#1037500
1)
0/
1!
#1040000
b1 +
b11 "
0!
#1042500
b10 +
b1 ,
1!
#1045000
0!
#1047500
b100 (
b11 -
b11 .
b10 ,
1!
#1050000
b101 (
0*
b0 .
b1 "
0!
#1052500
0)
1!
#1055000
b111 (
b1 -
b1 .
b10 "
0!
#1057500
1!
#1060000
b1111111000 -
b1111111111 .
b11 +
bx "
0!
#1062500
b0 +
10
b11 ,
1!
#1065000
0!
#1067500
b0 (
b0 -
00
1*
b0 ,
1/
1!
#1070000
0!
#1072500
1)
0/
1!
#1075000
b1 +
b111 "
0!
#1077500
b10 +
b1 ,
1!
#1080000
b10 "
0!
#1082500
b10 (
b1 -
b1 .
b10 ,
1!
#1085000
b1010 (
b101 -
b111 .
b100 "
0!
#1087500
1!
#1090000
b101010 (
b10101 -
b11111 .
b110 "
0!
#1092500
1!
#1095000
b101110 (
0*
b11 .
b11 "
0!
#1097500
0)
1!
#1100000
b1101110 (
b10001 -
b111111 .
b111 "
0!
#1102500
1!
#1105000
b1111110 (
b1 -
b1111 .
b101 "
0!
#1107500
1!
#1110000
b1111111 (
b0 -
b0 .
b1 "
0!
#1112500
1!
#1115000
b11 +
b1110000000 -
b1111111111 .
bx "
0!
#1117500
10
b0 +
b11 ,
1!
#1120000
0!
#1122500
b0 (
b0 -
00
1*
b0 ,
1/
1!
#1125000
0!
#1127500
1)
0/
1!
#1130000
b1 +
b111 "
0!
#1132500
b10 +
b1 ,
1!
#1135000
b1 "
0!
#1137500
b1 (
b0 .
b10 ,
1!
#1140000
b11 (
b1 .
b10 "
0!
#1142500
1!
#1145000
b10011 (
b1100 -
b1111 .
b101 "
0!
#1147500
1!
#1150000
b1010011 (
b101100 -
b111111 .
b111 "
0!
#1152500
1!
#1155000
b1110011 (
b1100 -
b11111 .
b110 "
0!
#1157500
1!
#1160000
b1111011 (
b100 -
b111 .
b100 "
0!
#1162500
1!
#1165000
b1111111 (
b0 -
b11 .
b11 "
0!
#1167500
1!
#1170000
b1110000000 -
b1111111111 .
b11 +
bx "
0!
#1172500
b0 +
10
b11 ,
1!
#1175000
0!
#1177500
b0 (
b0 -
00
b0 ,
1/
1!
#1180000
0!
#1182500
0/
1!
#1185000
b1 +
b1010 "
0!
#1187500
b10 +
b1 ,
1!
#1190000
b111 "
0!
#1192500
b1000000 (
b111111 -
b111111 .
b10 ,
1!
#1195000
b1010000 (
0*
b1111 .
b101 "
0!
#1197500
0)
1!
#1200000
b1001010000 (
b110101111 -
b111111111 .
b1010 "
0!
#1202500
1!
#1205000
b1001011000 (
b111 .
b100 "
0!
#1207500
1!
#1210000
b1001011010 (
b1 .
b10 "
0!
#1212500
1!
#1215000
b1011011010 (
b1111111 .
b1000 "
0!
#1217500
1!
#1220000
b1011011110 (
b11 .
b11 "
0!
#1222500
1!
#1225000
b1111011110 (
b10101111 -
b11111111 .
b1001 "
0!
#1227500
1!
#1230000
b1111111110 (
b11111 .
b110 "
0!
#1232500
1!
#1235000
b1111111111 (
b0 .
b1 "
0!
#1237500
1!
#1240000
b0 -
b1111111111 .
b11 +
bx "
0!
#1242500
b0 +
10
b11 ,
1!
#1245000
0!
#1247500
b0 (
00
1*
b0 ,
1/
1!
#1250000
0!
#1252500
1)
0/
1!
#1255000
b1 +
b1010 "
0!
#1257500
b10 +
b1 ,
1!
#1260000
b1 "
0!
#1262500
b1 (
b0 .
b10 ,
1!
#1265000
b11 (
b1 .
b10 "
0!
#1267500
1!
#1270000
b100011 (
b11100 -
b11111 .
b110 "
0!
#1272500
1!
#1275000
b100100011 (
b11011100 -
b11111111 .
b1001 "
0!
#1277500
1!
#1280000
b110100011 (
b1011100 -
b1111111 .
b1000 "
0!
#1282500
1!
#1285000
b110110011 (
0*
b1111 .
b101 "
0!
#1287500
0)
1!
#1290000
b110110111 (
b11 .
b11 "
0!
#1292500
1!
#1295000
b1110110111 (
b1001000 -
b111111111 .
b1010 "
0!
#1297500
1!
#1300000
b1111110111 (
b1000 -
b111111 .
b111 "
0!
#1302500
1!
#1305000
b1111111111 (
b0 -
b111 .
b100 "
0!
#1307500
1!
#1310000
b1111111111 .
b11 +
bx "
0!
#1312500
b0 +
10
b11 ,
1!
#1315000
0!
#1317500
b0 (
00
1*
b0 ,
1/
1!
#1320000
0!
#1322500
1)
0/
1!
#1325000
b1 +
b1000 "
0!
#1327500
b10 +
b1 ,
1!
#1330000
b100 "
0!
#1332500
b1000 (
b111 -
b111 .
b10 ,
1!
#1335000
b1001 (
0*
b0 .
b1 "
0!
#1337500
0)
1!
#1340000
b10001001 (
b1110110 -
b1111111 .
b1000 "
0!
#1342500
1!
#1345000
b10001011 (
b1 .
b10 "
0!
#1347500
1!
#1350000
b10001111 (
b11 .
b11 "
0!
#1352500
1!
#1355000
b11001111 (
b110110 -
b111111 .
b111 "
0!
#1357500
1!
#1360000
b11101111 (
b10110 -
b11111 .
b110 "
0!
#1362500
1!
#1365000
b11111111 (
b110 -
b1111 .
b101 "
0!
#1367500
1!
#1370000
b1100000000 -
b1111111111 .
b11 +
bx "
0!
#1372500
b0 +
10
b11 ,
1!
#1375000
0!
#1377500
b0 (
b0 -
00
1*
b0 ,
1/
1!
#1380000
0!
#1382500
1)
0/
1!
#1385000
b1 +
b101 "
0!
#1387500
b10 +
b1 ,
1!
#1390000
b1 "
0!
#1392500
b1 (
b0 .
b10 ,
1!
#1395000
b10001 (
b1110 -
b1111 .
b101 "
0!
#1397500
1!
#1400000
b10011 (
0*
b1 .
b10 "
0!
#1402500
0)
1!
#1405000
b10111 (
b11 .
b11 "
0!
#1407500
1!
#1410000
b11111 (
b110 -
b111 .
b100 "
0!
#1412500
1!
#1415000
b11 +
b1111100000 -
b1111111111 .
bx "
0!
#1417500
10
b0 +
b11 ,
1!
#1420000
0!
#1422500
b0 (
b0 -
00
1*
b0 ,
1/
1!
#1425000
0!
#1427500
1)
0/
1!
#1430000
b1 +
b101 "
0!
#1432500
b10 +
b1 ,
1!
#1435000
b100 "
0!
#1437500
b1000 (
b111 -
b111 .
b10 ,
1!
#1440000
b1010 (
0*
b1 .
b10 "
0!
#1442500
0)
1!
#1445000
b1110 (
b11 -
b11 .
b11 "
0!
#1447500
1!
#1450000
b11110 (
b1 -
b1111 .
b101 "
0!
#1452500
1!
#1455000
b11111 (
b0 -
b0 .
b1 "
0!
#1457500
1!
#1460000
b1111100000 -
b1111111111 .
b11 +
bx "
0!
#1462500
b0 +
10
b11 ,
1!
#1465000
0!
#1467500
b0 (
b0 -
00
1*
b0 ,
1/
1!
#1470000
0!
#1472500
1)
0/
1!
#1475000
b1 +
b1001 "
0!
#1477500
b10 +
b1 ,
1!
#1480000
b101 "
0!
#1482500
b10000 (
b1111 -
b1111 .
b10 ,
1!
#1485000
b110000 (
b11111 .
b110 "
0!
#1487500
1!
#1490000
b110001 (
0*
b0 .
b1 "
0!
#1492500
0)
1!
#1495000
b1110001 (
b1110 -
b111111 .
b111 "
0!
#1497500
1!
#1500000
b1110011 (
b1 .
b10 "
0!
#1502500
1!
#1505000
b11110011 (
b1100 -
b1111111 .
b1000 "
0!
#1507500
1!
#1510000
b111110011 (
b11111111 .
b1001 "
0!
#1512500
1!
#1515000
b111110111 (
b11 .
b11 "
0!
#1517500
1!
#1520000
b111111111 (
b100 -
b111 .
b100 "
0!
#1522500
1!
#1525000
b11 +
b1000000000 -
b1111111111 .
bx "
0!
#1527500
10
b0 +
b11 ,
1!
#1530000
0!
#1532500
b0 (
b0 -
00
1*
b0 ,
1/
1!
#1535000
0!
#1537500
1)
0/
1!
#1540000
b1 +
b100 "
0!
#1542500
b10 +
b1 ,
1!
#1545000
b1 "
0!
#1547500
b1 (
b0 .
b10 ,
1!
#1550000
b11 (
b1 .
b10 "
0!
#1552500
1!
#1555000
b111 (
b11 .
b11 "
0!
#1557500
1!
#1560000
b1111 (
b111 .
b100 "
0!
#1562500
1!
#1565000
b11 +
b1111110000 -
b1111111111 .
bx "
0!
#1567500
10
b0 +
b11 ,
1!
#1570000
0!
#1572500
b0 (
b0 -
00
b0 ,
1/
1!
#1575000
0!
#1577500
0/
1!
#1580000
b1 +
b11 "
0!
#1582500
b10 +
b1 ,
1!
#1585000
0!
#1587500
b100 (
b11 -
b11 .
b10 ,
1!
#1590000
b110 (
b1 -
b1 .
b10 "
0!
#1592500
1!
#1595000
b111 (
b0 -
b0 .
b1 "
0!
#1597500
1!
#1600000
b11 +
b1111111000 -
b1111111111 .
bx "
0!
#1602500
10
b0 +
b11 ,
1!
#1605000
0!
#1607500
b0 (
b0 -
00
b0 ,
1/
1!
#1610000
0!
#1612500
0/
1!
#1615000
b1 +
b110 "
0!
#1617500
b10 +
b1 ,
1!
#1620000
b1 "
0!
#1622500
b1 (
b0 .
b10 ,
1!
#1625000
b1001 (
b110 -
b111 .
b100 "
0!
#1627500
1!
#1630000
b101001 (
b10110 -
b11111 .
b110 "
0!
#1632500
1!
#1635000
b101101 (
0*
b11 .
b11 "
0!
#1637500
0)
1!
#1640000
b101111 (
b1 .
b10 "
0!
#1642500
1!
#1645000
b111111 (
b110 -
b1111 .
b101 "
0!
#1647500
1!
#1650000
b11 +
b1111000000 -
b1111111111 .
bx "
0!
#1652500
10
b0 +
b11 ,
1!
#1655000
0!
#1657500
b0 (
b0 -
00
1*
b0 ,
1/
1!
#1660000
0!
#1662500
1)
0/
1!
#1665000
b1 +
b1000 "
0!
#1667500
b10 +
b1 ,
1!
#1670000
b11 "
0!
#1672500
b100 (
b11 -
b11 .
b10 ,
1!
#1675000
b10000100 (
b1111011 -
b1111111 .
b1000 "
0!
#1677500
1!
#1680000
b10100100 (
0*
b11111 .
b110 "
0!
#1682500
0)
1!
#1685000
b10100101 (
b0 .
b1 "
0!
#1687500
1!
#1690000
b10100111 (
b1 .
b10 "
0!
#1692500
1!
#1695000
b10110111 (
b1111 .
b101 "
0!
#1697500
1!
#1700000
b10111111 (
b111 .
b100 "
0!
#1702500
1!
#1705000
b11111111 (
b111011 -
b111111 .
b111 "
0!
#1707500
1!
#1710000
b11 +
b1100000000 -
b1111111111 .
bx "
0!
#1712500
10
b0 +
b11 ,
1!
#1715000
0!
#1717500
b0 (
b0 -
00
1*
b0 ,
1/
1!
#1720000
0!
#1722500
1)
0/
1!
#1725000
b1 +
b1000 "
0!
#1727500
b10 +
b1 ,
1!
#1730000
b100 "
0!
#1732500
b1000 (
b111 -
b111 .
b10 ,
1!
#1735000
b1001 (
0*
b0 .
b1 "
0!
#1737500
0)
1!
#1740000
b10001001 (
b1110110 -
b1111111 .
b1000 "
0!
#1742500
1!
#1745000
b10001011 (
b1 .
b10 "
0!
#1747500
1!
#1750000
b10101011 (
b11111 .
b110 "
0!
#1752500
1!
#1755000
b10101111 (
b11 .
b11 "
0!
#1757500
1!
#1760000
b10111111 (
b1111 .
b101 "
0!
#1762500
1!
#1765000
b11111111 (
b110110 -
b111111 .
b111 "
0!
#1767500
1!
#1770000
b11 +
b1100000000 -
b1111111111 .
bx "
0!
#1772500
10
b0 +
b11 ,
1!
#1775000
0!
#1777500
b0 (
b0 -
00
1*
b0 ,
1/
1!
#1780000
0!
#1782500
1)
0/
1!
#1785000
b1 +
b11 "
0!
#1787500
b10 +
b1 ,
1!
#1790000
b1 "
0!
#1792500
b1 (
b0 .
b10 ,
1!
#1795000
b101 (
b10 -
b11 .
b11 "
0!
#1797500
1!
#1800000
b111 (
b0 -
b1 .
b10 "
0!
#1802500
1!
#1805000
b1111111000 -
b1111111111 .
b11 +
bx "
0!
#1807500
b0 +
10
b11 ,
1!
#1810000
0!
#1812500
b0 (
b0 -
00
b0 ,
1/
1!
#1815000
0!
#1817500
0/
1!
#1820000
b1 +
b1000 "
0!
#1822500
b10 +
b1 ,
1!
#1825000
b110 "
0!
#1827500
b100000 (
b11111 -
b11111 .
b10 ,
1!
#1830000
b110000 (
b1111 -
b1111 .
b101 "
0!
#1832500
1!
#1835000
b110100 (
0*
b11 .
b11 "
0!
#1837500
0)
1!
#1840000
b10110100 (
b1001011 -
b1111111 .
b1000 "
0!
#1842500
1!
#1845000
b10110110 (
b1 .
b10 "
0!
#1847500
1!
#1850000
b10110111 (
b0 .
b1 "
0!
#1852500
1!
#1855000
b10111111 (
b111 .
b100 "
0!
#1857500
1!
#1860000
b11111111 (
b1011 -
b111111 .
b111 "
0!
#1862500
1!
#1865000
b1100000000 -
b1111111111 .
b11 +
bx "
0!
#1867500
b0 +
10
b11 ,
1!
#1870000
0!
#1872500
b0 (
b0 -
00
1*
b0 ,
1/
1!
#1875000
0!
#1877500
1)
0/
1!
#1880000
b1 +
b11 "
0!
#1882500
b10 +
b1 ,
1!
#1885000
b10 "
0!
#1887500
b10 (
b1 -
b1 .
b10 ,
1!
#1890000
b110 (
b11 .
b11 "
0!
#1892500
1!
#1895000
b111 (
b0 -
b0 .
b1 "
0!
#1897500
1!
#1900000
b11 +
b1111111000 -
b1111111111 .
bx "
0!
#1902500
10
b0 +
b11 ,
1!
#1905000
0!
#1907500
b0 (
b0 -
00
b0 ,
1/
1!
#1910000
0!
#1912500
0/
1!
#1915000
b1 +
b11 "
0!
#1917500
b10 +
b1 ,
1!
#1920000
b10 "
0!
#1922500
b10 (
b1 -
b1 .
b10 ,
1!
#1925000
b11 (
b0 -
b0 .
b1 "
0!
#1927500
1!
#1930000
b111 (
b11 .
b11 "
0!
#1932500
1!
#1935000
b1111111000 -
b1111111111 .
b11 +
bx "
0!
#1937500
b0 +
10
b11 ,
1!
#1940000
0!
#1942500
b0 (
b0 -
00
b0 ,
1/
1!
#1945000
0!
#1947500
0/
1!
#1950000
b1 +
b110 "
0!
#1952500
b10 +
b1 ,
1!
#1955000
b101 "
0!
#1957500
b10000 (
b1111 -
b1111 .
b10 ,
1!
#1960000
b10001 (
0*
b0 .
b1 "
0!
#1962500
0)
1!
#1965000
b10011 (
b1 .
b10 "
0!
#1967500
1!
#1970000
b10111 (
b11 .
b11 "
0!
#1972500
1!
#1975000
b11111 (
b111 -
b111 .
b100 "
0!
#1977500
1!
#1980000
b111111 (
b0 -
b11111 .
b110 "
0!
#1982500
1!
