SV project/output/dump.vcd
$date
	Fri Feb  2 01:07:31 2024
$end

$version
	Synopsys VCS version S-2021.09
$end

$timescale
	10ps
$end

$comment Csum: 1 de8547503f1510b6 $end


$scope module tb_component $end
$upscope $end


$scope module top $end
$var reg 1 ! clk $end
$var reg 1 " reset $end

$scope module LCDif $end
$var reg 1 # clk $end
$var reg 1 $ reset $end
$var reg 4 % cmd [3:0] $end
$var reg 1 & cmd_valid $end
$var reg 8 ' IROM_Q [7:0] $end
$var reg 1 ( IROM_rd $end
$var reg 6 ) IROM_A [5:0] $end
$var reg 1 * IRAM_valid $end
$var reg 8 + IRAM_D [7:0] $end
$var reg 6 , IRAM_A [5:0] $end
$var reg 1 - busy $end
$var reg 1 . done $end
$upscope $end


$scope module DUT $end
$var wire 1 / clk $end
$var wire 1 0 reset $end
$var wire 4 1 cmd [3:0] $end
$var wire 1 2 cmd_valid $end
$var wire 8 3 IROM_Q [7:0] $end
$var reg 1 4 IROM_rd $end
$var reg 6 5 IROM_A [5:0] $end
$var reg 1 6 IRAM_valid $end
$var reg 8 7 IRAM_D [7:0] $end
$var reg 6 8 IRAM_A [5:0] $end
$var reg 1 9 busy $end
$var reg 1 : done $end
$var reg 3 ; state_reg [2:0] $end
$var reg 3 < state_next [2:0] $end
$var reg 6 = idx [5:0] $end
$var wire 8 > max [7:0] $end
$var wire 8 ? min [7:0] $end
$var wire 6 @ left_up [5:0] $end
$var wire 6 A right_up [5:0] $end
$var wire 6 B left_down [5:0] $end
$var wire 6 C right_down [5:0] $end
$var wire 11 D average [10:0] $end
$var reg 6 E buffer_idx [5:0] $end

$scope module a $end
$var wire 1 F select $end
$var wire 8 G number0 [7:0] $end
$var wire 8 H number1 [7:0] $end
$var wire 8 I number2 [7:0] $end
$var wire 8 J number3 [7:0] $end
$var wire 8 > result [7:0] $end
$var wire 8 K upper_result [7:0] $end
$var wire 8 L lower_result [7:0] $end

$scope module upper $end
$var wire 1 M select $end
$var wire 8 G number0 [7:0] $end
$var wire 8 H number1 [7:0] $end
$var reg 8 N result [7:0] $end
$upscope $end


$scope module lower $end
$var wire 1 M select $end
$var wire 8 I number0 [7:0] $end
$var wire 8 J number1 [7:0] $end
$var reg 8 O result [7:0] $end
$upscope $end


$scope module last $end
$var wire 1 M select $end
$var wire 8 K number0 [7:0] $end
$var wire 8 L number1 [7:0] $end
$var reg 8 P result [7:0] $end
$upscope $end

$upscope $end


$scope module b $end
$var wire 1 Q select $end
$var wire 8 G number0 [7:0] $end
$var wire 8 H number1 [7:0] $end
$var wire 8 I number2 [7:0] $end
$var wire 8 J number3 [7:0] $end
$var wire 8 ? result [7:0] $end
$var wire 8 R upper_result [7:0] $end
$var wire 8 S lower_result [7:0] $end

$scope module upper $end
$var wire 1 T select $end
$var wire 8 G number0 [7:0] $end
$var wire 8 H number1 [7:0] $end
$var reg 8 U result [7:0] $end
$upscope $end


$scope module lower $end
$var wire 1 T select $end
$var wire 8 I number0 [7:0] $end
$var wire 8 J number1 [7:0] $end
$var reg 8 V result [7:0] $end
$upscope $end


$scope module last $end
$var wire 1 T select $end
$var wire 8 R number0 [7:0] $end
$var wire 8 S number1 [7:0] $end
$var reg 8 W result [7:0] $end
$upscope $end

$upscope $end

$upscope $end

$upscope $end

$enddefinitions $end

#0
$dumpvars
0!
0"
bxxxxxx ,
bxxxxxxxx +
bxxxxxx )
bxxxxxxxx '
bxxxx %
x6
x4
x9
x:
bxxxxxx 8
bxxxxxxxx 7
bxxxxxx 5
b00xxxxxxxxx D
bxxxxxx E
bxxxxxx =
bxxxxxx B
bxxxxxx @
bxxxxxxxx >
bxxxxxxxx ?
bxxxxxx C
bxxxxxx A
bxxx <
bxxx ;
bxxxxxxxx N
bxxxxxxxx O
bxxxxxxxx P
bxxxxxxxx U
bxxxxxxxx V
bxxxxxxxx W
1Q
0F
bxxxx 1
bxxxxxxxx 3
bxxxxxxxx K
bxxxxxxxx G
bxxxxxxxx H
bxxxxxxxx L
bxxxxxxxx I
bxxxxxxxx J
bxxxxxxxx R
bxxxxxxxx S
0M
1T
0/
x2
00
0#
0$
x*
x(
x-
x&
x.
$end
#1000
1!
1#
1/
#2000
0!
0#
0/
1"
1$
10
04
0(
b111111 5
b111111 )
b111111 8
b111111 ,
06
0*
19
1-
0:
0.
b100100 =
b100011 B
b011011 @
b011100 A
b100100 C
b111111 E
b001 <
0&
02
#3000
1!
1#
1/
b001 ;
#4000
0!
0#
0/
#5000
1!
1#
1/
#6000
0"
0$
00
0!
0#
0/
#7000
1!
1#
1/
14
1(
b000000 5
b000000 )
#8000
0!
0#
0/
b10111001 '
b10111001 3
#9000
1!
1#
1/
b000001 5
b000001 )
#10000
0!
0#
0/
b01101100 '
b01101100 3
#11000
1!
1#
1/
b000010 5
b000010 )
#12000
0!
0#
0/
b10100111 '
b10100111 3
#13000
1!
1#
1/
b000011 5
b000011 )
#14000
0!
0#
0/
b10100011 '
b10100011 3
#15000
1!
1#
1/
b000100 5
b000100 )
#16000
0!
0#
0/
b10011100 '
b10011100 3
#17000
1!
1#
1/
b000101 5
b000101 )
#18000
0!
0#
0/
b00110100 '
b00110100 3
#19000
1!
1#
1/
b000110 5
b000110 )
#20000
0!
0#
0/
b00111001 '
b00111001 3
#21000
1!
1#
1/
b000111 5
b000111 )
#22000
0!
0#
0/
b10000011 '
b10000011 3
#23000
1!
1#
1/
b001000 5
b001000 )
#24000
0!
0#
0/
b00010100 '
b00010100 3
#25000
1!
1#
1/
b001001 5
b001001 )
#26000
0!
0#
0/
b11110110 '
b11110110 3
#27000
1!
1#
1/
b001010 5
b001010 )
#28000
0!
0#
0/
b01010010 '
b01010010 3
#29000
1!
1#
1/
b001011 5
b001011 )
#30000
0!
0#
0/
b11001001 '
b11001001 3
#31000
1!
1#
1/
b001100 5
b001100 )
#32000
0!
0#
0/
b11011011 '
b11011011 3
#33000
1!
1#
1/
b001101 5
b001101 )
#34000
0!
0#
0/
b00110110 '
b00110110 3
#35000
1!
1#
1/
b001110 5
b001110 )
#36000
0!
0#
0/
b01101001 '
b01101001 3
#37000
1!
1#
1/
b001111 5
b001111 )
#38000
0!
0#
0/
b10001010 '
b10001010 3
#39000
1!
1#
1/
b010000 5
b010000 )
#40000
0!
0#
0/
b10011001 '
b10011001 3
#41000
1!
1#
1/
b010001 5
b010001 )
#42000
0!
0#
0/
b00010111 '
b00010111 3
#43000
1!
1#
1/
b010010 5
b010010 )
#44000
0!
0#
0/
b00011000 '
b00011000 3
#45000
1!
1#
1/
b010011 5
b010011 )
#46000
0!
0#
0/
b11010001 '
b11010001 3
#47000
1!
1#
1/
b010100 5
b010100 )
#48000
0!
0#
0/
b11101101 '
b11101101 3
#49000
1!
1#
1/
b010101 5
b010101 )
#50000
0!
0#
0/
b11000001 '
b11000001 3
#51000
1!
1#
1/
b010110 5
b010110 )
#52000
0!
0#
0/
b11111000 '
b11111000 3
#53000
1!
1#
1/
b010111 5
b010111 )
#54000
0!
0#
0/
b01101010 '
b01101010 3
#55000
1!
1#
1/
b011000 5
b011000 )
#56000
0!
0#
0/
b11110100 '
b11110100 3
#57000
1!
1#
1/
b011001 5
b011001 )
#58000
0!
0#
0/
b01001110 '
b01001110 3
#59000
1!
1#
1/
b011010 5
b011010 )
#60000
0!
0#
0/
b10000011 '
b10000011 3
#61000
1!
1#
1/
b011011 5
b011011 )
#62000
0!
0#
0/
b10101111 '
b10101111 3
#63000
1!
1#
1/
b011100 5
b011100 )
b10101111 G
b10101111 U
b10101111 R
b10101111 W
b10101111 ?
#64000
0!
0#
0/
b01000110 '
b01000110 3
#65000
1!
1#
1/
b011101 5
b011101 )
b01000110 H
b10101111 N
b10101111 K
b01000110 U
b01000110 R
b01000110 W
b01000110 ?
#66000
0!
0#
0/
b10100101 '
b10100101 3
#67000
1!
1#
1/
b011110 5
b011110 )
#68000
0!
0#
0/
b00000100 '
b00000100 3
#69000
1!
1#
1/
b011111 5
b011111 )
#70000
0!
0#
0/
b00010001 '
b00010001 3
#71000
1!
1#
1/
b100000 5
b100000 )
#72000
0!
0#
0/
b10111001 '
b10111001 3
#73000
1!
1#
1/
b100001 5
b100001 )
#74000
0!
0#
0/
b10000011 '
b10000011 3
#75000
1!
1#
1/
b100010 5
b100010 )
#76000
0!
0#
0/
b00011000 '
b00011000 3
#77000
1!
1#
1/
b100011 5
b100011 )
#78000
0!
0#
0/
b10001100 '
b10001100 3
#79000
1!
1#
1/
b100100 5
b100100 )
b10001100 I
b10001100 V
b10001100 S
#80000
0!
0#
0/
b00011110 '
b00011110 3
#81000
1!
1#
1/
b100101 5
b100101 )
b00011110 J
b10001100 O
b10001100 L
b00011110 V
b00011110 S
b00001100111 D
b10101111 P
b10101111 >
b00011110 W
b00011110 ?
#82000
0!
0#
0/
b10000111 '
b10000111 3
#83000
1!
1#
1/
b100110 5
b100110 )
#84000
0!
0#
0/
b01000111 '
b01000111 3
#85000
1!
1#
1/
b100111 5
b100111 )
#86000
0!
0#
0/
b10100100 '
b10100100 3
#87000
1!
1#
1/
b101000 5
b101000 )
#88000
0!
0#
0/
b10111100 '
b10111100 3
#89000
1!
1#
1/
b101001 5
b101001 )
#90000
0!
0#
0/
b10000011 '
b10000011 3
#91000
1!
1#
1/
b101010 5
b101010 )
#92000
0!
0#
0/
b10101101 '
b10101101 3
#93000
1!
1#
1/
b101011 5
b101011 )
#94000
0!
0#
0/
b11010011 '
b11010011 3
#95000
1!
1#
1/
b101100 5
b101100 )
#96000
0!
0#
0/
b11000010 '
b11000010 3
#97000
1!
1#
1/
b101101 5
b101101 )
#98000
0!
0#
0/
b11100110 '
b11100110 3
#99000
1!
1#
1/
b101110 5
b101110 )
#100000
0!
0#
0/
b10001110 '
b10001110 3
#101000
1!
1#
1/
b101111 5
b101111 )
#102000
0!
0#
0/
b11111001 '
b11111001 3
#103000
1!
1#
1/
b110000 5
b110000 )
#104000
0!
0#
0/
b10101101 '
b10101101 3
#105000
1!
1#
1/
b110001 5
b110001 )
#106000
0!
0#
0/
b00011110 '
b00011110 3
#107000
1!
1#
1/
b110010 5
b110010 )
#108000
0!
0#
0/
b10110000 '
b10110000 3
#109000
1!
1#
1/
b110011 5
b110011 )
#110000
0!
0#
0/
b11110000 '
b11110000 3
#111000
1!
1#
1/
b110100 5
b110100 )
#112000
0!
0#
0/
b01011010 '
b01011010 3
#113000
1!
1#
1/
b110101 5
b110101 )
#114000
0!
0#
0/
b11010010 '
b11010010 3
#115000
1!
1#
1/
b110110 5
b110110 )
#116000
0!
0#
0/
b10010000 '
b10010000 3
#117000
1!
1#
1/
b110111 5
b110111 )
#118000
0!
0#
0/
b10100111 '
b10100111 3
#119000
1!
1#
1/
b111000 5
b111000 )
#120000
0!
0#
0/
b10101110 '
b10101110 3
#121000
1!
1#
1/
b111001 5
b111001 )
#122000
0!
0#
0/
b10110101 '
b10110101 3
#123000
1!
1#
1/
b111010 5
b111010 )
#124000
0!
0#
0/
b11111010 '
b11111010 3
#125000
1!
1#
1/
b111011 5
b111011 )
#126000
0!
0#
0/
b11011001 '
b11011001 3
#127000
1!
1#
1/
b111100 5
b111100 )
#128000
0!
0#
0/
b10010110 '
b10010110 3
#129000
1!
1#
1/
b111101 5
b111101 )
#130000
0!
0#
0/
b01011100 '
b01011100 3
#131000
1!
1#
1/
b111110 5
b111110 )
#132000
0!
0#
0/
b11000110 '
b11000110 3
#133000
1!
1#
1/
b111111 5
b111111 )
b010 <
#134000
0!
0#
0/
b01011011 '
b01011011 3
#135000
1!
1#
1/
b010 ;
b000000 5
b000000 )
#136000
0!
0#
0/
b10111001 '
b10111001 3
#137000
1!
1#
1/
09
0-
#138000
0!
0#
0/
b1011 %
b1011 1
1&
12
b011 <
#139000
1!
1#
1/
b011 ;
19
1-
b010 <
#140000
0!
0#
0/
0&
02
#141000
1!
1#
1/
b010 ;
b10001100 J
b10001100 V
b10001100 S
b00001100111 D
b00011110 I
b10101111 H
b01000110 G
b01000110 W
b01000110 ?
b00011110 V
b00011110 S
b00011110 W
b00011110 ?
#142000
0!
0#
0/
#143000
1!
1#
1/
09
0-
#144000
0!
0#
0/
b0011 %
b0011 1
1&
12
b011 <
#145000
1!
1#
1/
b011 ;
19
1-
b010 <
#146000
0!
0#
0/
0&
02
#147000
1!
1#
1/
b010 ;
b100011 =
b100010 B
b011010 @
b011011 A
b00011110 J
b100011 C
b00011000 I
b00000111111 D
b10000011 G
b01000110 H
b00011110 O
b00011110 L
b00011000 V
b00011000 S
b10000011 N
b10000011 K
b10000011 P
b10000011 >
b00011000 W
b00011000 ?
#148000
0!
0#
0/
#149000
1!
1#
1/
09
0-
#150000
0!
0#
0/
b1001 %
b1001 1
1&
12
b011 <
#151000
1!
1#
1/
b011 ;
19
1-
b010 <
#152000
0!
0#
0/
0&
02
#153000
1!
1#
1/
b010 ;
b01000110 J
b01000110 O
b01000110 L
b00000111111 D
b00011110 I
b10000011 H
b00011000 G
b00011110 V
b00011110 S
b00011000 U
b00011000 R
#154000
0!
0#
0/
#155000
1!
1#
1/
09
0-
#156000
0!
0#
0/
b0001 %
b0001 1
1&
12
b011 <
#157000
1!
1#
1/
b011 ;
19
1-
b010 <
#158000
0!
0#
0/
0&
02
#159000
1!
1#
1/
b010 ;
b011011 =
b011010 B
b010010 @
b010011 A
b10000011 J
b011011 C
b00011000 I
b00001100001 D
b11010001 H
b10000011 O
b10000011 L
b00011000 V
b00011000 S
b11010001 N
b11010001 K
b11010001 P
b11010001 >
#160000
0!
0#
0/
#161000
1!
1#
1/
09
0-
#162000
0!
0#
0/
b0010 %
b0010 1
1&
12
b011 <
#163000
1!
1#
1/
b011 ;
19
1-
b010 <
#164000
0!
0#
0/
0&
02
#165000
1!
1#
1/
b010 ;
b100011 =
b100010 B
b011010 @
b011011 A
b01000110 J
b100011 C
b00011110 I
b00000111111 D
b10000011 H
b01000110 O
b01000110 L
b00011110 V
b00011110 S
b10000011 N
b10000011 K
b10000011 P
b10000011 >
#166000
0!
0#
0/
#167000
1!
1#
1/
09
0-
#168000
0!
0#
0/
b1011 %
b1011 1
1&
12
b011 <
#169000
1!
1#
1/
b011 ;
19
1-
b010 <
#170000
0!
0#
0/
0&
02
#171000
1!
1#
1/
b010 ;
b00011110 J
b00011110 O
b00011110 L
b00000111111 D
b01000110 I
b00011000 H
b10000011 G
b01000110 O
b01000110 L
#172000
0!
0#
0/
#173000
1!
1#
1/
09
0-
#174000
0!
0#
0/
b0010 %
b0010 1
1&
12
b011 <
#175000
1!
1#
1/
b011 ;
19
1-
b010 <
#176000
0!
0#
0/
0&
02
#177000
1!
1#
1/
b010 ;
b101011 =
b101010 B
b100010 @
b100011 A
b11010011 J
b101011 C
b10101101 I
b00001111001 D
b01000110 G
b00011110 H
b11010011 O
b11010011 L
b10101101 V
b10101101 S
b01000110 N
b01000110 K
b00011110 U
b00011110 R
b11010011 P
b11010011 >
b00011110 W
b00011110 ?
#178000
0!
0#
0/
#179000
1!
1#
1/
09
0-
#180000
0!
0#
0/
b0111 %
b0111 1
1&
12
b011 <
#181000
1!
1#
1/
b011 ;
19
1-
b010 <
#182000
0!
0#
0/
0&
02
#183000
1!
1#
1/
b010 ;
b01111001 J
b10101101 O
b10101101 L
b01111001 V
b01111001 S
b00001111001 D
b01111001 I
b01111001 H
b01111001 G
b10101101 P
b10101101 >
b01111001 O
b01111001 L
b01111001 N
b01111001 K
b01111001 U
b01111001 R
b01111001 P
b01111001 >
b01111001 W
b01111001 ?
#184000
0!
0#
0/
#185000
1!
1#
1/
09
0-
#186000
0!
0#
0/
1&
12
b011 <
#187000
1!
1#
1/
b011 ;
19
1-
b010 <
#188000
0!
0#
0/
0&
02
#189000
1!
1#
1/
b010 ;
#190000
0!
0#
0/
#191000
1!
1#
1/
09
0-
#192000
0!
0#
0/
b0001 %
b0001 1
1&
12
b011 <
#193000
1!
1#
1/
b011 ;
19
1-
b010 <
#194000
0!
0#
0/
0&
02
#195000
1!
1#
1/
b010 ;
b100011 =
b100010 B
b011010 @
b011011 A
b100011 C
b10000011 G
b00001100011 D
b00011000 H
b10000011 N
b10000011 K
b00011000 U
b00011000 R
b10000011 P
b10000011 >
b00011000 W
b00011000 ?
#196000
0!
0#
0/
#197000
1!
1#
1/
09
0-
#198000
0!
0#
0/
b0010 %
b0010 1
1&
12
b011 <
#199000
1!
1#
1/
b011 ;
19
1-
b010 <
#200000
0!
0#
0/
0&
02
#201000
1!
1#
1/
b010 ;
b101011 =
b101010 B
b100010 @
b100011 A
b101011 C
b01111001 G
b00001111001 D
b01111001 H
b01111001 N
b01111001 K
b01111001 U
b01111001 R
b01111001 P
b01111001 >
b01111001 W
b01111001 ?
#202000
0!
0#
0/
#203000
1!
1#
1/
09
0-
#204000
0!
0#
0/
b0001 %
b0001 1
1&
12
b011 <
#205000
1!
1#
1/
b011 ;
19
1-
b010 <
#206000
0!
0#
0/
0&
02
#207000
1!
1#
1/
b010 ;
b100011 =
b100010 B
b011010 @
b011011 A
b100011 C
b10000011 G
b00001100011 D
b00011000 H
b10000011 N
b10000011 K
b00011000 U
b00011000 R
b10000011 P
b10000011 >
b00011000 W
b00011000 ?
#208000
0!
0#
0/
#209000
1!
1#
1/
09
0-
#210000
0!
0#
0/
b0010 %
b0010 1
1&
12
b011 <
#211000
1!
1#
1/
b011 ;
19
1-
b010 <
#212000
0!
0#
0/
0&
02
#213000
1!
1#
1/
b010 ;
b101011 =
b101010 B
b100010 @
b100011 A
b101011 C
b01111001 G
b00001111001 D
b01111001 H
b01111001 N
b01111001 K
b01111001 U
b01111001 R
b01111001 P
b01111001 >
b01111001 W
b01111001 ?
#214000
0!
0#
0/
#215000
1!
1#
1/
09
0-
#216000
0!
0#
0/
b0000 %
b0000 1
1&
12
b011 <
#217000
1!
1#
1/
b011 ;
19
1-
#218000
0!
0#
0/
0&
02
#219000
1!
1#
1/
16
1*
b000000 E
b01011011 7
b01011011 +
#220000
0!
0#
0/
#221000
1!
1#
1/
b000001 E
b000000 8
b000000 ,
b10111001 7
b10111001 +
#222000
0!
0#
0/
#223000
1!
1#
1/
b000010 E
b000001 8
b000001 ,
b01101100 7
b01101100 +
#224000
0!
0#
0/
#225000
1!
1#
1/
b000011 E
b000010 8
b000010 ,
b10100111 7
b10100111 +
#226000
0!
0#
0/
#227000
1!
1#
1/
b000100 E
b000011 8
b000011 ,
b10100011 7
b10100011 +
#228000
0!
0#
0/
#229000
1!
1#
1/
b000101 E
b000100 8
b000100 ,
b10011100 7
b10011100 +
#230000
0!
0#
0/
#231000
1!
1#
1/
b000110 E
b000101 8
b000101 ,
b00110100 7
b00110100 +
#232000
0!
0#
0/
#233000
1!
1#
1/
b000111 E
b000110 8
b000110 ,
b00111001 7
b00111001 +
#234000
0!
0#
0/
#235000
1!
1#
1/
b001000 E
b000111 8
b000111 ,
b10000011 7
b10000011 +
#236000
0!
0#
0/
#237000
1!
1#
1/
b001001 E
b001000 8
b001000 ,
b00010100 7
b00010100 +
#238000
0!
0#
0/
#239000
1!
1#
1/
b001010 E
b001001 8
b001001 ,
b11110110 7
b11110110 +
#240000
0!
0#
0/
#241000
1!
1#
1/
b001011 E
b001010 8
b001010 ,
b01010010 7
b01010010 +
#242000
0!
0#
0/
#243000
1!
1#
1/
b001100 E
b001011 8
b001011 ,
b11001001 7
b11001001 +
#244000
0!
0#
0/
#245000
1!
1#
1/
b001101 E
b001100 8
b001100 ,
b11011011 7
b11011011 +
#246000
0!
0#
0/
#247000
1!
1#
1/
b001110 E
b001101 8
b001101 ,
b00110110 7
b00110110 +
#248000
0!
0#
0/
#249000
1!
1#
1/
b001111 E
b001110 8
b001110 ,
b01101001 7
b01101001 +
#250000
0!
0#
0/
#251000
1!
1#
1/
b010000 E
b001111 8
b001111 ,
b10001010 7
b10001010 +
#252000
0!
0#
0/
#253000
1!
1#
1/
b010001 E
b010000 8
b010000 ,
b10011001 7
b10011001 +
#254000
0!
0#
0/
#255000
1!
1#
1/
b010010 E
b010001 8
b010001 ,
b00010111 7
b00010111 +
#256000
0!
0#
0/
#257000
1!
1#
1/
b010011 E
b010010 8
b010010 ,
b00011000 7
b00011000 +
#258000
0!
0#
0/
#259000
1!
1#
1/
b010100 E
b010011 8
b010011 ,
b11010001 7
b11010001 +
#260000
0!
0#
0/
#261000
1!
1#
1/
b010101 E
b010100 8
b010100 ,
b11101101 7
b11101101 +
#262000
0!
0#
0/
#263000
1!
1#
1/
b010110 E
b010101 8
b010101 ,
b11000001 7
b11000001 +
#264000
0!
0#
0/
#265000
1!
1#
1/
b010111 E
b010110 8
b010110 ,
b11111000 7
b11111000 +
#266000
0!
0#
0/
#267000
1!
1#
1/
b011000 E
b010111 8
b010111 ,
b01101010 7
b01101010 +
#268000
0!
0#
0/
#269000
1!
1#
1/
b011001 E
b011000 8
b011000 ,
b11110100 7
b11110100 +
#270000
0!
0#
0/
#271000
1!
1#
1/
b011010 E
b011001 8
b011001 ,
b01001110 7
b01001110 +
#272000
0!
0#
0/
#273000
1!
1#
1/
b011011 E
b011010 8
b011010 ,
b10000011 7
b10000011 +
#274000
0!
0#
0/
#275000
1!
1#
1/
b011100 E
b011011 8
b011011 ,
b00011000 7
b00011000 +
#276000
0!
0#
0/
#277000
1!
1#
1/
b011101 E
b011100 8
b011100 ,
b10101111 7
b10101111 +
#278000
0!
0#
0/
#279000
1!
1#
1/
b011110 E
b011101 8
b011101 ,
b10100101 7
b10100101 +
#280000
0!
0#
0/
#281000
1!
1#
1/
b011111 E
b011110 8
b011110 ,
b00000100 7
b00000100 +
#282000
0!
0#
0/
#283000
1!
1#
1/
b100000 E
b011111 8
b011111 ,
b00010001 7
b00010001 +
#284000
0!
0#
0/
#285000
1!
1#
1/
b100001 E
b100000 8
b100000 ,
b10111001 7
b10111001 +
#286000
0!
0#
0/
#287000
1!
1#
1/
b100010 E
b100001 8
b100001 ,
b10000011 7
b10000011 +
#288000
0!
0#
0/
#289000
1!
1#
1/
b100011 E
b100010 8
b100010 ,
b01111001 7
b01111001 +
#290000
0!
0#
0/
#291000
1!
1#
1/
b100100 E
b100011 8
b100011 ,
#292000
0!
0#
0/
#293000
1!
1#
1/
b100101 E
b100100 8
b100100 ,
b10001100 7
b10001100 +
#294000
0!
0#
0/
#295000
1!
1#
1/
b100110 E
b100101 8
b100101 ,
b10000111 7
b10000111 +
#296000
0!
0#
0/
#297000
1!
1#
1/
b100111 E
b100110 8
b100110 ,
b01000111 7
b01000111 +
#298000
0!
0#
0/
#299000
1!
1#
1/
b101000 E
b100111 8
b100111 ,
b10100100 7
b10100100 +
#300000
0!
0#
0/
#301000
1!
1#
1/
b101001 E
b101000 8
b101000 ,
b10111100 7
b10111100 +
#302000
0!
0#
0/
#303000
1!
1#
1/
b101010 E
b101001 8
b101001 ,
b10000011 7
b10000011 +
#304000
0!
0#
0/
#305000
1!
1#
1/
b101011 E
b101010 8
b101010 ,
b01111001 7
b01111001 +
#306000
0!
0#
0/
#307000
1!
1#
1/
b101100 E
b101011 8
b101011 ,
#308000
0!
0#
0/
#309000
1!
1#
1/
b101101 E
b101100 8
b101100 ,
b11000010 7
b11000010 +
#310000
0!
0#
0/
#311000
1!
1#
1/
b101110 E
b101101 8
b101101 ,
b11100110 7
b11100110 +
#312000
0!
0#
0/
#313000
1!
1#
1/
b101111 E
b101110 8
b101110 ,
b10001110 7
b10001110 +
#314000
0!
0#
0/
#315000
1!
1#
1/
b110000 E
b101111 8
b101111 ,
b11111001 7
b11111001 +
#316000
0!
0#
0/
#317000
1!
1#
1/
b110001 E
b110000 8
b110000 ,
b10101101 7
b10101101 +
#318000
0!
0#
0/
#319000
1!
1#
1/
b110010 E
b110001 8
b110001 ,
b00011110 7
b00011110 +
#320000
0!
0#
0/
#321000
1!
1#
1/
b110011 E
b110010 8
b110010 ,
b10110000 7
b10110000 +
#322000
0!
0#
0/
#323000
1!
1#
1/
b110100 E
b110011 8
b110011 ,
b11110000 7
b11110000 +
#324000
0!
0#
0/
#325000
1!
1#
1/
b110101 E
b110100 8
b110100 ,
b01011010 7
b01011010 +
#326000
0!
0#
0/
#327000
1!
1#
1/
b110110 E
b110101 8
b110101 ,
b11010010 7
b11010010 +
#328000
0!
0#
0/
#329000
1!
1#
1/
b110111 E
b110110 8
b110110 ,
b10010000 7
b10010000 +
#330000
0!
0#
0/
#331000
1!
1#
1/
b111000 E
b110111 8
b110111 ,
b10100111 7
b10100111 +
#332000
0!
0#
0/
#333000
1!
1#
1/
b111001 E
b111000 8
b111000 ,
b10101110 7
b10101110 +
#334000
0!
0#
0/
#335000
1!
1#
1/
b111010 E
b111001 8
b111001 ,
b10110101 7
b10110101 +
#336000
0!
0#
0/
#337000
1!
1#
1/
b111011 E
b111010 8
b111010 ,
b11111010 7
b11111010 +
#338000
0!
0#
0/
#339000
1!
1#
1/
b111100 E
b111011 8
b111011 ,
b11011001 7
b11011001 +
#340000
0!
0#
0/
#341000
1!
1#
1/
b111101 E
b111100 8
b111100 ,
b10010110 7
b10010110 +
#342000
0!
0#
0/
#343000
1!
1#
1/
b111110 E
b111101 8
b111101 ,
b01011100 7
b01011100 +
#344000
0!
0#
0/
#345000
1!
1#
1/
b111111 E
b111110 8
b111110 ,
b11000110 7
b11000110 +
b100 <
#346000
0!
0#
0/
#347000
1!
1#
1/
b100 ;
b000000 E
b111111 8
b111111 ,
b01011011 7
b01011011 +
b000 <
#348000
0!
0#
0/
#349000
1!
1#
1/
b000 ;
09
0-
1:
1.
b001 <
#350000
0!
0#
0/
#351000
1!
1#
1/
b001 ;
04
0(
b111111 5
b111111 )
06
0*
19
1-
0:
0.
b100100 =
b100011 B
b011011 @
b011100 A
b10001100 J
b100100 C
b111111 E
b00011000 G
b00001110011 D
b10101111 H
b10001100 O
b10001100 L
b10101111 N
b10101111 K
b00011000 U
b00011000 R
b10101111 P
b10101111 >
b00011000 W
b00011000 ?
#352000
0!
0#
0/
#353000
1!
1#
1/
14
1(
b000000 5
b000000 )
#354000
0!
0#
0/
b01011011 '
b01011011 3
#355000
1!
1#
1/
b000001 5
b000001 )
#356000
0!
0#
0/
b10000000 '
b10000000 3
#357000
1!
1#
1/
b000010 5
b000010 )
#358000
0!
0#
0/
b10001010 '
b10001010 3
#359000
1!
1#
1/
b000011 5
b000011 )
#360000
0!
0#
0/
b01000010 '
b01000010 3
#361000
1!
1#
1/
b000100 5
b000100 )
#362000
0!
0#
0/
b11010101 '
b11010101 3
#363000
1!
1#
1/
b000101 5
b000101 )
#364000
0!
0#
0/
b10000001 '
b10000001 3
#365000
1!
1#
1/
b000110 5
b000110 )
#366000
0!
0#
0/
b01101010 '
b01101010 3
#367000
1!
1#
1/
b000111 5
b000111 )
#368000
0!
0#
0/
b10001101 '
b10001101 3
#369000
1!
1#
1/
b001000 5
b001000 )
#370000
0!
0#
0/
b11001101 '
b11001101 3
#371000
1!
1#
1/
b001001 5
b001001 )
#372000
0!
0#
0/
b00010100 '
b00010100 3
#373000
1!
1#
1/
b001010 5
b001010 )
#374000
0!
0#
0/
b00011001 '
b00011001 3
#375000
1!
1#
1/
b001011 5
b001011 )
#376000
0!
0#
0/
b00101010 '
b00101010 3
#377000
1!
1#
1/
b001100 5
b001100 )
#378000
0!
0#
0/
b01111111 '
b01111111 3
#379000
1!
1#
1/
b001101 5
b001101 )
#380000
0!
0#
0/
b01111000 '
b01111000 3
#381000
1!
1#
1/
b001110 5
b001110 )
#382000
0!
0#
0/
b01011111 '
b01011111 3
#383000
1!
1#
1/
b001111 5
b001111 )
#384000
0!
0#
0/
b00110101 '
b00110101 3
#385000
1!
1#
1/
b010000 5
b010000 )
#386000
0!
0#
0/
b01100111 '
b01100111 3
#387000
1!
1#
1/
b010001 5
b010001 )
#388000
0!
0#
0/
b00000100 '
b00000100 3
#389000
1!
1#
1/
b010010 5
b010010 )
#390000
0!
0#
0/
b10011100 '
b10011100 3
#391000
1!
1#
1/
b010011 5
b010011 )
#392000
0!
0#
0/
b11000111 '
b11000111 3
#393000
1!
1#
1/
b010100 5
b010100 )
#394000
0!
0#
0/
b00111111 '
b00111111 3
#395000
1!
1#
1/
b010101 5
b010101 )
#396000
0!
0#
0/
b10000010 '
b10000010 3
#397000
1!
1#
1/
b010110 5
b010110 )
#398000
0!
0#
0/
b01000000 '
b01000000 3
#399000
1!
1#
1/
b010111 5
b010111 )
#400000
0!
0#
0/
b11100100 '
b11100100 3
#401000
1!
1#
1/
b011000 5
b011000 )
#402000
0!
0#
0/
b11111011 '
b11111011 3
#403000
1!
1#
1/
b011001 5
b011001 )
#404000
0!
0#
0/
b00010111 '
b00010111 3
#405000
1!
1#
1/
b011010 5
b011010 )
#406000
0!
0#
0/
b01100111 '
b01100111 3
#407000
1!
1#
1/
b011011 5
b011011 )
#408000
0!
0#
0/
b01101110 '
b01101110 3
#409000
1!
1#
1/
b011100 5
b011100 )
b01101110 G
b00010001000 D
b01101110 U
b01101110 R
b01101110 W
b01101110 ?
#410000
0!
0#
0/
b00101100 '
b00101100 3
#411000
1!
1#
1/
b011101 5
b011101 )
b00101100 H
b00001100111 D
b01101110 N
b01101110 K
b00101100 U
b00101100 R
b10001100 P
b10001100 >
b00101100 W
b00101100 ?
#412000
0!
0#
0/
b11110011 '
b11110011 3
#413000
1!
1#
1/
b011110 5
b011110 )
#414000
0!
0#
0/
b10110010 '
b10110010 3
#415000
1!
1#
1/
b011111 5
b011111 )
#416000
0!
0#
0/
b10010000 '
b10010000 3
#417000
1!
1#
1/
b100000 5
b100000 )
#418000
0!
0#
0/
b00100000 '
b00100000 3
#419000
1!
1#
1/
b100001 5
b100001 )
#420000
0!
0#
0/
b01011000 '
b01011000 3
#421000
1!
1#
1/
b100010 5
b100010 )
